UE03/A2/sim/result.vcd
$date
  Wed Apr 15 17:15:37 2026
$end
$version
  GHDL v0
$end
$timescale
  1 fs
$end
$scope module standard $end
$upscope $end
$scope module textio $end
$upscope $end
$scope module std_logic_1164 $end
$upscope $end
$scope module std_logic_arith $end
$upscope $end
$scope module std_logic_unsigned $end
$upscope $end
$scope module numeric_std $end
$upscope $end
$scope module testbench $end
$var reg 8 ! a[7:0] $end
$var reg 8 " b[7:0] $end
$var reg 2 # y[1:0] $end
$scope module my_comparator $end
$var reg 8 $ a[7:0] $end
$var reg 8 % b[7:0] $end
$var reg 2 & result[1:0] $end
$var reg 8 ' not_b[7:0] $end
$var reg 8 ( diff[7:0] $end
$var reg 1 ) cout $end
$var reg 1 * z01 $end
$var reg 1 + z23 $end
$var reg 1 , z45 $end
$var reg 1 - z67 $end
$var reg 1 . z0123 $end
$var reg 1 / z4567 $end
$var reg 1 0 zero $end
$scope module sub $end
$var reg 8 1 a[7:0] $end
$var reg 8 2 b[7:0] $end
$var reg 1 3 cin $end
$var reg 1 4 cout $end
$var reg 8 5 sum[7:0] $end
$var reg 9 6 c[8:0] $end
$scope module carry_ripple_adder(0) $end
$scope module fa_i $end
$var reg 1 7 a $end
$var reg 1 8 b $end
$var reg 1 9 cin $end
$var reg 1 : cout $end
$var reg 1 ; s $end
$upscope $end
$upscope $end
$scope module carry_ripple_adder(1) $end
$scope module fa_i $end
$var reg 1 < a $end
$var reg 1 = b $end
$var reg 1 > cin $end
$var reg 1 ? cout $end
$var reg 1 @ s $end
$upscope $end
$upscope $end
$scope module carry_ripple_adder(2) $end
$scope module fa_i $end
$var reg 1 A a $end
$var reg 1 B b $end
$var reg 1 C cin $end
$var reg 1 D cout $end
$var reg 1 E s $end
$upscope $end
$upscope $end
$scope module carry_ripple_adder(3) $end
$scope module fa_i $end
$var reg 1 F a $end
$var reg 1 G b $end
$var reg 1 H cin $end
$var reg 1 I cout $end
$var reg 1 J s $end
$upscope $end
$upscope $end
$scope module carry_ripple_adder(4) $end
$scope module fa_i $end
$var reg 1 K a $end
$var reg 1 L b $end
$var reg 1 M cin $end
$var reg 1 N cout $end
$var reg 1 O s $end
$upscope $end
$upscope $end
$scope module carry_ripple_adder(5) $end
$scope module fa_i $end
$var reg 1 P a $end
$var reg 1 Q b $end
$var reg 1 R cin $end
$var reg 1 S cout $end
$var reg 1 T s $end
$upscope $end
$upscope $end
$scope module carry_ripple_adder(6) $end
$scope module fa_i $end
$var reg 1 U a $end
$var reg 1 V b $end
$var reg 1 W cin $end
$var reg 1 X cout $end
$var reg 1 Y s $end
$upscope $end
$upscope $end
$scope module carry_ripple_adder(7) $end
$scope module fa_i $end
$var reg 1 Z a $end
$var reg 1 [ b $end
$var reg 1 \ cin $end
$var reg 1 ] cout $end
$var reg 1 ^ s $end
$upscope $end
$upscope $end
$upscope $end
$upscope $end
$upscope $end
$enddefinitions $end
#0
b00001111 !
b00001111 "
b00 #
b00001111 $
b00001111 %
b00 &
b11110000 '
b00000000 (
1)
1*
1+
1,
1-
1.
1/
10
b00001111 1
b11110000 2
13
14
b00000000 5
b111111111 6
17
08
19
1:
0;
1<
0=
1>
1?
0@
1A
0B
1C
1D
0E
1F
0G
1H
1I
0J
0K
1L
1M
1N
0O
0P
1Q
1R
1S
0T
0U
1V
1W
1X
0Y
0Z
1[
1\
1]
0^
#5000000
b00000011 !
b01 #
b00000011 $
b01 &
b11110100 (
0)
0+
0,
0-
0.
0/
00
b00000011 1
04
b11110100 5
b000000111 6
0A
0D
1E
0F
0H
0I
0J
0M
0N
1O
0R
0S
1T
0W
0X
1Y
0\
0]
1^
#10000000
b00001111 !
b00000011 "
b10 #
b00001111 $
b00000011 %
b10 &
b11111100 '
b00001100 (
1)
1,
1-
1/
b00001111 1
b11111100 2
14
b00001100 5
b111111111 6
1A
1B
1D
1E
1F
1G
1H
1I
1J
1M
1N
0O
1R
1S
0T
1W
1X
0Y
1\
1]
0^
#15000000
b00000000 !
b00000000 "
b00 #
b00000000 $
b00000000 %
b00 &
b11111111 '
b00000000 (
1)
1*
1+
1,
1-
1.
1/
10
b00000000 1
b11111111 2
14
b00000000 5
b111111111 6
07
18
1:
0;
0<
1=
1>
1?
0@
0A
1C
1D
0E
0F
1H
1I
0J
1M
1N
0O
1R
1S
0T
1W
1X
0Y
1\
1]
0^
#20000000
#25000000
b00000001 "
b01 #
b00000001 %
b01 &
b11111110 '
b11111111 (
0)
0*
0+
0,
0-
0.
0/
00
b11111110 2
04
b11111111 5
b000000001 6
08
0:
1;
0>
0?
1@
0C
0D
1E
0H
0I
1J
0M
0N
1O
0R
0S
1T
0W
0X
1Y
0\
0]
1^
#30000000
#35000000
b00000010 "
b00000010 %
b11111101 '
b11111110 (
0*
b11111101 2
b11111110 5
b000000011 6
18
1:
0;
0=
1>
1@
#40000000
#45000000
b00000011 "
b00000011 %
b11111100 '
b11111101 (
b11111100 2
b11111101 5
b000000001 6
08
0:
1;
0>
0@
#50000000
#55000000
b00000100 "
b00000100 %
b11111011 '
b11111100 (
1*
b11111011 2
b11111100 5
b000000111 6
18
1:
0;
1=
1>
1?
0@
0B
1C
1E
#60000000
#65000000
b00000101 "
b00000101 %
b11111010 '
b11111011 (
0*
b11111010 2
b11111011 5
b000000001 6
08
0:
1;
0>
0?
1@
0C
0E
#70000000
#75000000
b00000110 "
b00000110 %
b11111001 '
b11111010 (
0*
b11111001 2
b11111010 5
b000000011 6
18
1:
0;
0=
1>
1@
#80000000
#85000000
b00000111 "
b00000111 %
b11111000 '
b11111001 (
b11111000 2
b11111001 5
b000000001 6
08
0:
1;
0>
0@
#90000000
#95000000
b00001000 "
b00001000 %
b11110111 '
b11111000 (
1*
0+
0.
b11110111 2
b11111000 5
b000001111 6
18
1:
0;
1=
1>
1?
0@
1B
1C
1D
0E
0G
1H
1J
#100000000
#105000000
b00001001 "
b00001001 %
b11110110 '
b11110111 (
0*
b11110110 2
b11110111 5
b000000001 6
08
0:
1;
0>
0?
1@
0C
0D
1E
0H
0J
#110000000
#115000000
b00001010 "
b00001010 %
b11110101 '
b11110110 (
0*
b11110101 2
b11110110 5
b000000011 6
18
1:
0;
0=
1>
1@
#120000000
#125000000
b00001011 "
b00001011 %
b11110100 '
b11110101 (
b11110100 2
b11110101 5
b000000001 6
08
0:
1;
0>
0@
#130000000
#135000000
b00001100 "
b00001100 %
b11110011 '
b11110100 (
1*
0+
0.
b11110011 2
b11110100 5
b000000111 6
18
1:
0;
1=
1>
1?
0@
0B
1C
1E
#140000000
#145000000
b00001101 "
b00001101 %
b11110010 '
b11110011 (
0*
1+
b11110010 2
b11110011 5
b000000001 6
08
0:
1;
0>
0?
1@
0C
0E
#150000000
#155000000
b00001110 "
b00001110 %
b11110001 '
b11110010 (
0*
0.
b11110001 2
b11110010 5
b000000011 6
18
1:
0;
0=
1>
1@
#160000000
#165000000
b00001111 "
b00001111 %
b11110000 '
b11110001 (
b11110000 2
b11110001 5
b000000001 6
08
0:
1;
0>
0@
#170000000
#175000000
b00010000 "
b00010000 %
b11101111 '
b11110000 (
1*
1+
1.
b11101111 2
b11110000 5
b000011111 6
18
1:
0;
1=
1>
1?
0@
1B
1C
1D
0E
1G
1H
1I
0J
0L
1M
1O
#180000000
#185000000
b00010001 "
b00010001 %
b11101110 '
b11101111 (
0*
0+
0.
b11101110 2
b11101111 5
b000000001 6
08
0:
1;
0>
0?
1@
0C
0D
1E
0H
0I
1J
0M
0O
#190000000
#195000000
b00010010 "
b00010010 %
b11101101 '
b11101110 (
0*
b11101101 2
b11101110 5
b000000011 6
18
1:
0;
0=
1>
1@
#200000000
#205000000
b00010011 "
b00010011 %
b11101100 '
b11101101 (
b11101100 2
b11101101 5
b000000001 6
08
0:
1;
0>
0@
#210000000
#215000000
b00010100 "
b00010100 %
b11101011 '
b11101100 (
1*
b11101011 2
b11101100 5
b000000111 6
18
1:
0;
1=
1>
1?
0@
0B
1C
1E
#220000000
#225000000
b00010101 "
b00010101 %
b11101010 '
b11101011 (
0*
b11101010 2
b11101011 5
b000000001 6
08
0:
1;
0>
0?
1@
0C
0E
#230000000
#235000000
b00010110 "
b00010110 %
b11101001 '
b11101010 (
0*
b11101001 2
b11101010 5
b000000011 6
18
1:
0;
0=
1>
1@
#240000000
#245000000
b00010111 "
b00010111 %
b11101000 '
b11101001 (
b11101000 2
b11101001 5
b000000001 6
08
0:
1;
0>
0@
#250000000
#255000000
b00011000 "
b00011000 %
b11100111 '
b11101000 (
1*
0+
0.
b11100111 2
b11101000 5
b000001111 6
18
1:
0;
1=
1>
1?
0@
1B
1C
1D
0E
0G
1H
1J
#260000000
#265000000
b00011001 "
b00011001 %
b11100110 '
b11100111 (
0*
b11100110 2
b11100111 5
b000000001 6
08
0:
1;
0>
0?
1@
0C
0D
1E
0H
0J
#270000000
#275000000
b00011010 "
b00011010 %
b11100101 '
b11100110 (
0*
b11100101 2
b11100110 5
b000000011 6
18
1:
0;
0=
1>
1@
#280000000
#285000000
b00011011 "
b00011011 %
b11100100 '
b11100101 (
b11100100 2
b11100101 5
b000000001 6
08
0:
1;
0>
0@
#290000000
#295000000
b00011100 "
b00011100 %
b11100011 '
b11100100 (
1*
0+
0.
b11100011 2
b11100100 5
b000000111 6
18
1:
0;
1=
1>
1?
0@
0B
1C
1E
#300000000
#305000000
b00011101 "
b00011101 %
b11100010 '
b11100011 (
0*
1+
b11100010 2
b11100011 5
b000000001 6
08
0:
1;
0>
0?
1@
0C
0E
#310000000
#315000000
b00011110 "
b00011110 %
b11100001 '
b11100010 (
0*
0.
b11100001 2
b11100010 5
b000000011 6
18
1:
0;
0=
1>
1@
#320000000
#325000000
b00011111 "
b00011111 %
b11100000 '
b11100001 (
b11100000 2
b11100001 5
b000000001 6
08
0:
1;
0>
0@
#330000000
#335000000
b00100000 "
b00100000 %
b11011111 '
b11100000 (
1*
1+
0,
1.
b11011111 2
b11100000 5
b000111111 6
18
1:
0;
1=
1>
1?
0@
1B
1C
1D
0E
1G
1H
1I
0J
1L
1M
1N
0O
0Q
1R
1T
#340000000
#345000000
b00100001 "
b00100001 %
b11011110 '
b11011111 (
0*
0+
0.
b11011110 2
b11011111 5
b000000001 6
08
0:
1;
0>
0?
1@
0C
0D
1E
0H
0I
1J
0M
0N
1O
0R
0T
#350000000
#355000000
b00100010 "
b00100010 %
b11011101 '
b11011110 (
0*
b11011101 2
b11011110 5
b000000011 6
18
1:
0;
0=
1>
1@
#360000000
#365000000
b00100011 "
b00100011 %
b11011100 '
b11011101 (
b11011100 2
b11011101 5
b000000001 6
08
0:
1;
0>
0@
#370000000
#375000000
b00100100 "
b00100100 %
b11011011 '
b11011100 (
1*
b11011011 2
b11011100 5
b000000111 6
18
1:
0;
1=
1>
1?
0@
0B
1C
1E
#380000000
#385000000
b00100101 "
b00100101 %
b11011010 '
b11011011 (
0*
b11011010 2
b11011011 5
b000000001 6
08
0:
1;
0>
0?
1@
0C
0E
#390000000
#395000000
b00100110 "
b00100110 %
b11011001 '
b11011010 (
0*
b11011001 2
b11011010 5
b000000011 6
18
1:
0;
0=
1>
1@
#400000000
#405000000
b00100111 "
b00100111 %
b11011000 '
b11011001 (
b11011000 2
b11011001 5
b000000001 6
08
0:
1;
0>
0@
#410000000
#415000000
b00101000 "
b00101000 %
b11010111 '
b11011000 (
1*
0+
0.
b11010111 2
b11011000 5
b000001111 6
18
1:
0;
1=
1>
1?
0@
1B
1C
1D
0E
0G
1H
1J
#420000000
#425000000
b00101001 "
b00101001 %
b11010110 '
b11010111 (
0*
b11010110 2
b11010111 5
b000000001 6
08
0:
1;
0>
0?
1@
0C
0D
1E
0H
0J
#430000000
#435000000
b00101010 "
b00101010 %
b11010101 '
b11010110 (
0*
b11010101 2
b11010110 5
b000000011 6
18
1:
0;
0=
1>
1@
#440000000
#445000000
b00101011 "
b00101011 %
b11010100 '
b11010101 (
b11010100 2
b11010101 5
b000000001 6
08
0:
1;
0>
0@
#450000000
#455000000
b00101100 "
b00101100 %
b11010011 '
b11010100 (
1*
0+
0.
b11010011 2
b11010100 5
b000000111 6
18
1:
0;
1=
1>
1?
0@
0B
1C
1E
#460000000
#465000000
b00101101 "
b00101101 %
b11010010 '
b11010011 (
0*
1+
b11010010 2
b11010011 5
b000000001 6
08
0:
1;
0>
0?
1@
0C
0E
#470000000
#475000000
b00101110 "
b00101110 %
b11010001 '
b11010010 (
0*
0.
b11010001 2
b11010010 5
b000000011 6
18
1:
0;
0=
1>
1@
#480000000
#485000000
b00101111 "
b00101111 %
b11010000 '
b11010001 (
b11010000 2
b11010001 5
b000000001 6
08
0:
1;
0>
0@
#490000000
#495000000
b00110000 "
b00110000 %
b11001111 '
b11010000 (
1*
1+
0,
1.
b11001111 2
b11010000 5
b000011111 6
18
1:
0;
1=
1>
1?
0@
1B
1C
1D
0E
1G
1H
1I
0J
0L
1M
1O
#500000000
#505000000
b00110001 "
b00110001 %
b11001110 '
b11001111 (
0*
0+
1,
0.
b11001110 2
b11001111 5
b000000001 6
08
0:
1;
0>
0?
1@
0C
0D
1E
0H
0I
1J
0M
0O
#510000000
#515000000
b00110010 "
b00110010 %
b11001101 '
b11001110 (
0*
b11001101 2
b11001110 5
b000000011 6
18
1:
0;
0=
1>
1@
#520000000
#525000000
b00110011 "
b00110011 %
b11001100 '
b11001101 (
b11001100 2
b11001101 5
b000000001 6
08
0:
1;
0>
0@
#530000000
#535000000
b00110100 "
b00110100 %
b11001011 '
b11001100 (
1*
b11001011 2
b11001100 5
b000000111 6
18
1:
0;
1=
1>
1?
0@
0B
1C
1E
#540000000
#545000000
b00110101 "
b00110101 %
b11001010 '
b11001011 (
0*
b11001010 2
b11001011 5
b000000001 6
08
0:
1;
0>
0?
1@
0C
0E
#550000000
#555000000
b00110110 "
b00110110 %
b11001001 '
b11001010 (
0*
b11001001 2
b11001010 5
b000000011 6
18
1:
0;
0=
1>
1@
#560000000
#565000000
b00110111 "
b00110111 %
b11001000 '
b11001001 (
b11001000 2
b11001001 5
b000000001 6
08
0:
1;
0>
0@
#570000000
#575000000
b00111000 "
b00111000 %
b11000111 '
b11001000 (
1*
0+
0.
b11000111 2
b11001000 5
b000001111 6
18
1:
0;
1=
1>
1?
0@
1B
1C
1D
0E
0G
1H
1J
#580000000
#585000000
b00111001 "
b00111001 %
b11000110 '
b11000111 (
0*
b11000110 2
b11000111 5
b000000001 6
08
0:
1;
0>
0?
1@
0C
0D
1E
0H
0J
#590000000
#595000000
b00111010 "
b00111010 %
b11000101 '
b11000110 (
0*
b11000101 2
b11000110 5
b000000011 6
18
1:
0;
0=
1>
1@
#600000000
#605000000
b00111011 "
b00111011 %
b11000100 '
b11000101 (
b11000100 2
b11000101 5
b000000001 6
08
0:
1;
0>
0@
#610000000
#615000000
b00111100 "
b00111100 %
b11000011 '
b11000100 (
1*
0+
0.
b11000011 2
b11000100 5
b000000111 6
18
1:
0;
1=
1>
1?
0@
0B
1C
1E
#620000000
#625000000
b00111101 "
b00111101 %
b11000010 '
b11000011 (
0*
1+
b11000010 2
b11000011 5
b000000001 6
08
0:
1;
0>
0?
1@
0C
0E
#630000000
#635000000
b00111110 "
b00111110 %
b11000001 '
b11000010 (
0*
0.
b11000001 2
b11000010 5
b000000011 6
18
1:
0;
0=
1>
1@
#640000000
#645000000
b00111111 "
b00111111 %
b11000000 '
b11000001 (
b11000000 2
b11000001 5
b000000001 6
08
0:
1;
0>
0@
#650000000
#655000000
b01000000 "
b01000000 %
b10111111 '
b11000000 (
1*
1+
1,
1.
b10111111 2
b11000000 5
b001111111 6
18
1:
0;
1=
1>
1?
0@
1B
1C
1D
0E
1G
1H
1I
0J
1L
1M
1N
0O
1Q
1R
1S
0T
0V
1W
1Y
#660000000
#665000000
b01000001 "
b01000001 %
b10111110 '
b10111111 (
0*
0+
0,
0.
b10111110 2
b10111111 5
b000000001 6
08
0:
1;
0>
0?
1@
0C
0D
1E
0H
0I
1J
0M
0N
1O
0R
0S
1T
0W
0Y
#670000000
#675000000
b01000010 "
b01000010 %
b10111101 '
b10111110 (
0*
b10111101 2
b10111110 5
b000000011 6
18
1:
0;
0=
1>
1@
#680000000
#685000000
b01000011 "
b01000011 %
b10111100 '
b10111101 (
b10111100 2
b10111101 5
b000000001 6
08
0:
1;
0>
0@
#690000000
#695000000
b01000100 "
b01000100 %
b10111011 '
b10111100 (
1*
b10111011 2
b10111100 5
b000000111 6
18
1:
0;
1=
1>
1?
0@
0B
1C
1E
#700000000
#705000000
b01000101 "
b01000101 %
b10111010 '
b10111011 (
0*
b10111010 2
b10111011 5
b000000001 6
08
0:
1;
0>
0?
1@
0C
0E
#710000000
#715000000
b01000110 "
b01000110 %
b10111001 '
b10111010 (
0*
b10111001 2
b10111010 5
b000000011 6
18
1:
0;
0=
1>
1@
#720000000
#725000000
b01000111 "
b01000111 %
b10111000 '
b10111001 (
b10111000 2
b10111001 5
b000000001 6
08
0:
1;
0>
0@
#730000000
#735000000
b01001000 "
b01001000 %
b10110111 '
b10111000 (
1*
0+
0.
b10110111 2
b10111000 5
b000001111 6
18
1:
0;
1=
1>
1?
0@
1B
1C
1D
0E
0G
1H
1J
#740000000
#745000000
b01001001 "
b01001001 %
b10110110 '
b10110111 (
0*
b10110110 2
b10110111 5
b000000001 6
08
0:
1;
0>
0?
1@
0C
0D
1E
0H
0J
#750000000
#755000000
b01001010 "
b01001010 %
b10110101 '
b10110110 (
0*
b10110101 2
b10110110 5
b000000011 6
18
1:
0;
0=
1>
1@
#760000000
#765000000
b01001011 "
b01001011 %
b10110100 '
b10110101 (
b10110100 2
b10110101 5
b000000001 6
08
0:
1;
0>
0@
#770000000
#775000000
b01001100 "
b01001100 %
b10110011 '
b10110100 (
1*
0+
0.
b10110011 2
b10110100 5
b000000111 6
18
1:
0;
1=
1>
1?
0@
0B
1C
1E
#780000000
#785000000
b01001101 "
b01001101 %
b10110010 '
b10110011 (
0*
1+
b10110010 2
b10110011 5
b000000001 6
08
0:
1;
0>
0?
1@
0C
0E
#790000000
#795000000
b01001110 "
b01001110 %
b10110001 '
b10110010 (
0*
0.
b10110001 2
b10110010 5
b000000011 6
18
1:
0;
0=
1>
1@
#800000000
#805000000
b01001111 "
b01001111 %
b10110000 '
b10110001 (
b10110000 2
b10110001 5
b000000001 6
08
0:
1;
0>
0@
#810000000
#815000000
b01010000 "
b01010000 %
b10101111 '
b10110000 (
1*
1+
1.
b10101111 2
b10110000 5
b000011111 6
18
1:
0;
1=
1>
1?
0@
1B
1C
1D
0E
1G
1H
1I
0J
0L
1M
1O
#820000000
#825000000
b01010001 "
b01010001 %
b10101110 '
b10101111 (
0*
0+
0.
b10101110 2
b10101111 5
b000000001 6
08
0:
1;
0>
0?
1@
0C
0D
1E
0H
0I
1J
0M
0O
#830000000
#835000000
b01010010 "
b01010010 %
b10101101 '
b10101110 (
0*
b10101101 2
b10101110 5
b000000011 6
18
1:
0;
0=
1>
1@
#840000000
#845000000
b01010011 "
b01010011 %
b10101100 '
b10101101 (
b10101100 2
b10101101 5
b000000001 6
08
0:
1;
0>
0@
#850000000
#855000000
b01010100 "
b01010100 %
b10101011 '
b10101100 (
1*
b10101011 2
b10101100 5
b000000111 6
18
1:
0;
1=
1>
1?
0@
0B
1C
1E
#860000000
#865000000
b01010101 "
b01010101 %
b10101010 '
b10101011 (
0*
b10101010 2
b10101011 5
b000000001 6
08
0:
1;
0>
0?
1@
0C
0E
#870000000
#875000000
b01010110 "
b01010110 %
b10101001 '
b10101010 (
0*
b10101001 2
b10101010 5
b000000011 6
18
1:
0;
0=
1>
1@
#880000000
#885000000
b01010111 "
b01010111 %
b10101000 '
b10101001 (
b10101000 2
b10101001 5
b000000001 6
08
0:
1;
0>
0@
#890000000
#895000000
b01011000 "
b01011000 %
b10100111 '
b10101000 (
1*
0+
0.
b10100111 2
b10101000 5
b000001111 6
18
1:
0;
1=
1>
1?
0@
1B
1C
1D
0E
0G
1H
1J
#900000000
#905000000
b01011001 "
b01011001 %
b10100110 '
b10100111 (
0*
b10100110 2
b10100111 5
b000000001 6
08
0:
1;
0>
0?
1@
0C
0D
1E
0H
0J
#910000000
#915000000
b01011010 "
b01011010 %
b10100101 '
b10100110 (
0*
b10100101 2
b10100110 5
b000000011 6
18
1:
0;
0=
1>
1@
#920000000
#925000000
b01011011 "
b01011011 %
b10100100 '
b10100101 (
b10100100 2
b10100101 5
b000000001 6
08
0:
1;
0>
0@
#930000000
#935000000
b01011100 "
b01011100 %
b10100011 '
b10100100 (
1*
0+
0.
b10100011 2
b10100100 5
b000000111 6
18
1:
0;
1=
1>
1?
0@
0B
1C
1E
#940000000
#945000000
b01011101 "
b01011101 %
b10100010 '
b10100011 (
0*
1+
b10100010 2
b10100011 5
b000000001 6
08
0:
1;
0>
0?
1@
0C
0E
#950000000
#955000000
b01011110 "
b01011110 %
b10100001 '
b10100010 (
0*
0.
b10100001 2
b10100010 5
b000000011 6
18
1:
0;
0=
1>
1@
#960000000
#965000000
b01011111 "
b01011111 %
b10100000 '
b10100001 (
b10100000 2
b10100001 5
b000000001 6
08
0:
1;
0>
0@
#970000000
#975000000
b01100000 "
b01100000 %
b10011111 '
b10100000 (
1*
1+
0,
1.
b10011111 2
b10100000 5
b000111111 6
18
1:
0;
1=
1>
1?
0@
1B
1C
1D
0E
1G
1H
1I
0J
1L
1M
1N
0O
0Q
1R
1T
#980000000
#985000000
b01100001 "
b01100001 %
b10011110 '
b10011111 (
0*
0+
0.
b10011110 2
b10011111 5
b000000001 6
08
0:
1;
0>
0?
1@
0C
0D
1E
0H
0I
1J
0M
0N
1O
0R
0T
#990000000
#995000000
b01100010 "
b01100010 %
b10011101 '
b10011110 (
0*
b10011101 2
b10011110 5
b000000011 6
18
1:
0;
0=
1>
1@
#1000000000
#1005000000
b01100011 "
b01100011 %
b10011100 '
b10011101 (
b10011100 2
b10011101 5
b000000001 6
08
0:
1;
0>
0@
#1010000000
#1015000000
b01100100 "
b01100100 %
b10011011 '
b10011100 (
1*
b10011011 2
b10011100 5
b000000111 6
18
1:
0;
1=
1>
1?
0@
0B
1C
1E
#1020000000
#1025000000
b01100101 "
b01100101 %
b10011010 '
b10011011 (
0*
b10011010 2
b10011011 5
b000000001 6
08
0:
1;
0>
0?
1@
0C
0E
#1030000000
#1035000000
b01100110 "
b01100110 %
b10011001 '
b10011010 (
0*
b10011001 2
b10011010 5
b000000011 6
18
1:
0;
0=
1>
1@
#1040000000
#1045000000
b01100111 "
b01100111 %
b10011000 '
b10011001 (
b10011000 2
b10011001 5
b000000001 6
08
0:
1;
0>
0@
#1050000000
#1055000000
b01101000 "
b01101000 %
b10010111 '
b10011000 (
1*
0+
0.
b10010111 2
b10011000 5
b000001111 6
18
1:
0;
1=
1>
1?
0@
1B
1C
1D
0E
0G
1H
1J
#1060000000
#1065000000
b01101001 "
b01101001 %
b10010110 '
b10010111 (
0*
b10010110 2
b10010111 5
b000000001 6
08
0:
1;
0>
0?
1@
0C
0D
1E
0H
0J
#1070000000
#1075000000
b01101010 "
b01101010 %
b10010101 '
b10010110 (
0*
b10010101 2
b10010110 5
b000000011 6
18
1:
0;
0=
1>
1@
#1080000000
#1085000000
b01101011 "
b01101011 %
b10010100 '
b10010101 (
b10010100 2
b10010101 5
b000000001 6
08
0:
1;
0>
0@
#1090000000
#1095000000
b01101100 "
b01101100 %
b10010011 '
b10010100 (
1*
0+
0.
b10010011 2
b10010100 5
b000000111 6
18
1:
0;
1=
1>
1?
0@
0B
1C
1E
#1100000000
#1105000000
b01101101 "
b01101101 %
b10010010 '
b10010011 (
0*
1+
b10010010 2
b10010011 5
b000000001 6
08
0:
1;
0>
0?
1@
0C
0E
#1110000000
#1115000000
b01101110 "
b01101110 %
b10010001 '
b10010010 (
0*
0.
b10010001 2
b10010010 5
b000000011 6
18
1:
0;
0=
1>
1@
#1120000000
#1125000000
b01101111 "
b01101111 %
b10010000 '
b10010001 (
b10010000 2
b10010001 5
b000000001 6
08
0:
1;
0>
0@
#1130000000
#1135000000
b01110000 "
b01110000 %
b10001111 '
b10010000 (
1*
1+
0,
1.
b10001111 2
b10010000 5
b000011111 6
18
1:
0;
1=
1>
1?
0@
1B
1C
1D
0E
1G
1H
1I
0J
0L
1M
1O
#1140000000
#1145000000
b01110001 "
b01110001 %
b10001110 '
b10001111 (
0*
0+
1,
0.
b10001110 2
b10001111 5
b000000001 6
08
0:
1;
0>
0?
1@
0C
0D
1E
0H
0I
1J
0M
0O
#1150000000
#1155000000
b01110010 "
b01110010 %
b10001101 '
b10001110 (
0*
b10001101 2
b10001110 5
b000000011 6
18
1:
0;
0=
1>
1@
#1160000000
#1165000000
b01110011 "
b01110011 %
b10001100 '
b10001101 (
b10001100 2
b10001101 5
b000000001 6
08
0:
1;
0>
0@
#1170000000
#1175000000
b01110100 "
b01110100 %
b10001011 '
b10001100 (
1*
b10001011 2
b10001100 5
b000000111 6
18
1:
0;
1=
1>
1?
0@
0B
1C
1E
#1180000000
#1185000000
b01110101 "
b01110101 %
b10001010 '
b10001011 (
0*
b10001010 2
b10001011 5
b000000001 6
08
0:
1;
0>
0?
1@
0C
0E
#1190000000
#1195000000
b01110110 "
b01110110 %
b10001001 '
b10001010 (
0*
b10001001 2
b10001010 5
b000000011 6
18
1:
0;
0=
1>
1@
#1200000000
#1205000000
b01110111 "
b01110111 %
b10001000 '
b10001001 (
b10001000 2
b10001001 5
b000000001 6
08
0:
1;
0>
0@
#1210000000
#1215000000
b01111000 "
b01111000 %
b10000111 '
b10001000 (
1*
0+
0.
b10000111 2
b10001000 5
b000001111 6
18
1:
0;
1=
1>
1?
0@
1B
1C
1D
0E
0G
1H
1J
#1220000000
#1225000000
b01111001 "
b01111001 %
b10000110 '
b10000111 (
0*
b10000110 2
b10000111 5
b000000001 6
08
0:
1;
0>
0?
1@
0C
0D
1E
0H
0J
#1230000000
#1235000000
b01111010 "
b01111010 %
b10000101 '
b10000110 (
0*
b10000101 2
b10000110 5
b000000011 6
18
1:
0;
0=
1>
1@
#1240000000
#1245000000
b01111011 "
b01111011 %
b10000100 '
b10000101 (
b10000100 2
b10000101 5
b000000001 6
08
0:
1;
0>
0@
#1250000000
#1255000000
b01111100 "
b01111100 %
b10000011 '
b10000100 (
1*
0+
0.
b10000011 2
b10000100 5
b000000111 6
18
1:
0;
1=
1>
1?
0@
0B
1C
1E
#1260000000
#1265000000
b01111101 "
b01111101 %
b10000010 '
b10000011 (
0*
1+
b10000010 2
b10000011 5
b000000001 6
08
0:
1;
0>
0?
1@
0C
0E
#1270000000
#1275000000
b01111110 "
b01111110 %
b10000001 '
b10000010 (
0*
0.
b10000001 2
b10000010 5
b000000011 6
18
1:
0;
0=
1>
1@
#1280000000
#1285000000
b01111111 "
b01111111 %
b10000000 '
b10000001 (
b10000000 2
b10000001 5
b000000001 6
08
0:
1;
0>
0@
#1290000000
#1295000000
b00000001 !
b00000000 "
b10 #
b00000001 $
b00000000 %
b10 &
b11111111 '
b00000001 (
1)
0*
1+
1,
1-
0.
1/
b00000001 1
b11111111 2
14
b00000001 5
b111111111 6
17
18
1:
1;
1=
1>
1?
1B
1C
1D
0E
1G
1H
1I
0J
1L
1M
1N
0O
1Q
1R
1S
0T
1V
1W
1X
0Y
1\
1]
0^
#1300000000
#1305000000
b00000001 "
b00 #
b00000001 %
b00 &
b11111110 '
b00000000 (
1*
1.
10
b11111110 2
b00000000 5
08
0;
#1310000000
#1315000000
b00000010 "
b01 #
b00000010 %
b01 &
b11111101 '
b11111111 (
0)
0*
0+
0,
0-
0.
0/
00
b11111101 2
04
b11111111 5
b000000011 6
18
1;
0=
0?
1@
0C
0D
1E
0H
0I
1J
0M
0N
1O
0R
0S
1T
0W
0X
1Y
0\
0]
1^
#1320000000
#1325000000
b00000011 "
b00000011 %
b11111100 '
b11111110 (
b11111100 2
b11111110 5
08
0;
#1330000000
#1335000000
b00000100 "
b00000100 %
b11111011 '
b11111101 (
b11111011 2
b11111101 5
b000000111 6
18
1;
1=
1?
0@
0B
1C
1E
#1340000000
#1345000000
b00000101 "
b00000101 %
b11111010 '
b11111100 (
1*
b11111010 2
b11111100 5
08
0;
#1350000000
#1355000000
b00000110 "
b00000110 %
b11111001 '
b11111011 (
0*
b11111001 2
b11111011 5
b000000011 6
18
1;
0=
0?
1@
0C
0E
#1360000000
#1365000000
b00000111 "
b00000111 %
b11111000 '
b11111010 (
b11111000 2
b11111010 5
08
0;
#1370000000
#1375000000
b00001000 "
b00001000 %
b11110111 '
b11111001 (
0+
b11110111 2
b11111001 5
b000001111 6
18
1;
1=
1?
0@
1B
1C
1D
0E
0G
1H
1J
#1380000000
#1385000000
b00001001 "
b00001001 %
b11110110 '
b11111000 (
1*
b11110110 2
b11111000 5
08
0;
#1390000000
#1395000000
b00001010 "
b00001010 %
b11110101 '
b11110111 (
0*
b11110101 2
b11110111 5
b000000011 6
18
1;
0=
0?
1@
0C
0D
1E
0H
0J
#1400000000
#1405000000
b00001011 "
b00001011 %
b11110100 '
b11110110 (
b11110100 2
b11110110 5
08
0;
#1410000000
#1415000000
b00001100 "
b00001100 %
b11110011 '
b11110101 (
0+
b11110011 2
b11110101 5
b000000111 6
18
1;
1=
1?
0@
0B
1C
1E
#1420000000
#1425000000
b00001101 "
b00001101 %
b11110010 '
b11110100 (
1*
b11110010 2
b11110100 5
08
0;
#1430000000
#1435000000
b00001110 "
b00001110 %
b11110001 '
b11110011 (
0*
1+
b11110001 2
b11110011 5
b000000011 6
18
1;
0=
0?
1@
0C
0E
#1440000000
#1445000000
b00001111 "
b00001111 %
b11110000 '
b11110010 (
b11110000 2
b11110010 5
08
0;
#1450000000
